				"\r\n+CLIN: 0\r\nRING: 1\r\n\r\n+CLIP: \"+4917620524036\",145\r\n"
"AT+CHLD=6\r"
				"\r\nOK\r\n"
				"\r\n+CIEV: 6,0\r\n"
				"\r\n+CIEV: 6,0\r\n"
				"\r\n+CIEV: 6,0\r\n"
				"\r\n+CIEV: 6,0\r\n"
				"\r\n+CIEV: 6,0\r\n"
				"\r\n+CIEV: 6,0\r\n"
				"\r\n+CIEV: 6,0\r\n"
				"\r\n+CIEV: 6,0\r\n"
				"\r\n+CESS: 3, 23\r\n"
				"\r\nNO CARRIER: 1\r\n\r\n+CIEV: 5,0\r\n"
